<?xml version="1.0" encoding="utf-8"?>
<COLLADA xmlns="http://www.collada.org/2005/11/COLLADASchema" version="1.4.1">
  <asset>
    <contributor>
      <author>Blender User</author>
      <authoring_tool>Blender 2.76.0 commit date:2015-11-03, commit time:10:56, hash:f337fea</authoring_tool>
    </contributor>
    <created>2016-02-10T22:06:45</created>
    <modified>2016-02-10T22:06:45</modified>
    <unit name="meter" meter="1"/>
    <up_axis>Z_UP</up_axis>
  </asset>
  <library_images/>
  <library_effects>
    <effect id="Material_001-effect">
      <profile_COMMON>
        <technique sid="common">
          <phong>
            <emission>
              <color sid="emission">0 0 0 1</color>
            </emission>
            <ambient>
              <color sid="ambient">0 0 0 1</color>
            </ambient>
            <diffuse>
              <color sid="diffuse">0.64 0.64 0.64 1</color>
            </diffuse>
            <specular>
              <color sid="specular">0.5 0.5 0.5 1</color>
            </specular>
            <shininess>
              <float sid="shininess">50</float>
            </shininess>
            <index_of_refraction>
              <float sid="index_of_refraction">1</float>
            </index_of_refraction>
          </phong>
        </technique>
      </profile_COMMON>
    </effect>
  </library_effects>
  <library_materials>
    <material id="Material_001-material" name="Material_001">
      <instance_effect url="#Material_001-effect"/>
    </material>
  </library_materials>
  <library_geometries>
    <geometry id="Silver-cross-mesh" name="Silver-cross">
      <mesh>
        <source id="Silver-cross-mesh-positions">
          <float_array id="Silver-cross-mesh-positions-array" count="984">-0.2826076 0 -4.141896 -0.4017657 0 -4.070868 -0.5158876 0 -3.929365 -0.6044469 0 -3.796 -0.628133 0 -3.694564 -0.64038 0 -3.560317 -0.6465141 0 -3.393287 -0.6471585 0 -3.177725 -2.015227 0 -3.230132 -2.111613 0 -3.235488 -2.19729 0 -3.133746 -2.19729 0 -3.032006 -2.149097 0 -2.930264 -1.790325 0 -2.453687 -1.29233 5.7125e-5 -1.709371 -1.110266 0.03541922 -1.22744 -1.120976 0.0883553 -1.050732 -1.233427 0.1196676 -0.9597002 -1.463906 0.09636038 -0.9435243 -1.612189 0.05803674 -1.000575 -1.838519 0.01453042 -1.157828 -2.071116 0.001872777 -1.295881 -2.353764 0 -1.494587 -2.591306 0 -1.672402 -2.798216 0 -1.823905 -3.016573 0 -1.977112 -3.167401 0 -2.103997 -3.306626 0 -2.195028 -3.461915 0 -2.221802 -3.574366 0 -2.109351 -3.606494 0 -1.921934 -3.408367 0 -0.7706533 -3.435141 0 -0.658203 -3.552947 0 -0.6314284 -3.783203 0 -0.5725262 -3.970621 0 -0.5189781 -4.174103 0 -0.4011723 -4.297263 0 -0.2405286 -4.37223 0 -0.06382036 -4.436488 0 0.1021783 -4.420423 0 0.2414031 -4.377584 0 0.4341753 -4.270489 0 0.5787546 -4.072361 0 0.6912056 -3.820686 0 0.734044 -3.697526 0 0.7661725 -3.558301 0 0.8304299 -3.44585 0 0.9750095 -3.451205 0 1.264168 -3.461914 0 1.681842 -3.504753 0 2.051324 -3.520817 0 2.233387 -3.472624 0 2.292289 -3.381592 0 2.276225 -3.226304 0 2.195903 -2.680114 0 1.815712 -2.353472 0 1.569391 -1.892959 0.004723668 1.296297 -1.560962 0.04875743 1.119589 -1.394964 0.08899414 1.066041 -1.245029 0.08638405 1.130298 -1.170062 0.06565195 1.21062 -1.159353 0.03316992 1.333781 -1.186126 0.005728304 1.537263 -1.314641 3.34088e-4 1.697906 -1.507414 0 2.029905 -1.769799 0 2.420805 -2.010765 0 2.784931 -2.257085 0 3.079444 -2.289214 0 3.165121 -2.315988 0 3.261507 -2.27315 0 3.357894 -2.166054 0 3.411442 -1.801927 0 3.422152 -1.373544 0 3.406086 -0.9344503 0 3.416797 -0.146569 -1.99071e-7 -4.170506 0.05303758 0 -4.135776 0.2230384 0 -4.06138 0.3873659 0 -3.918535 0.5129981 0 -3.785424 0.5535696 0 -3.684837 0.5841612 0 -3.551976 0.6101559 0 -3.386839 0.6309306 0 -3.173752 2.015227 0 -3.230132 2.111613 0 -3.235494 2.197123 0 -3.134535 2.196162 0 -3.033854 2.146847 0 -2.932936 1.781866 0 -2.460891 1.282396 0 -1.719251 1.10774 0 -1.231567 1.119358 1.134e-4 -1.053851 1.230038 8.39073e-5 -0.9642722 1.451992 0 -0.9539698 1.589735 0 -1.017485 1.789284 0 -1.189904 1.985561 0 -1.346625 2.207195 0 -1.574534 2.444737 0 -1.752349 2.651647 0 -1.903851 2.870004 0 -2.057059 3.020832 0 -2.183943 3.160057 0 -2.274975 3.315346 0 -2.301749 3.427797 0 -2.189298 3.459925 0 -2.001881 3.261798 0 -0.8506 3.288572 0 -0.7381498 3.406378 0 -0.7113752 3.636634 0 -0.652473 3.824052 0 -0.5989249 4.027534 0 -0.4811191 4.150694 0 -0.3204754 4.225661 0 -0.1437672 4.289919 0 0.02223145 4.273854 0 0.1614562 4.231015 0 0.3542285 4.123919 0 0.4988077 3.925792 0 0.6112589 3.674117 0 0.6540972 3.550957 0 0.6862258 3.411732 0 0.7504832 3.299281 0 0.8950627 3.304636 0 1.184222 3.315345 0 1.601895 3.358184 0 1.971377 3.374248 0 2.15344 3.326055 0 2.212343 3.235023 0 2.196278 3.079735 0 2.115957 2.636505 0 1.786821 2.343088 0 1.560177 1.892959 0 1.296196 1.560962 0 1.119589 1.394964 1.76972e-4 1.066041 1.245029 7.43669e-4 1.130298 1.170062 7.99494e-4 1.21062 1.159353 2.23768e-4 1.333781 1.186126 0 1.537263 1.314641 0 1.697906 1.507414 0 2.029905 1.769799 0 2.420125 2.009886 0 2.782732 2.255493 0 3.077004 2.288295 0 3.163432 2.31572 0 3.260636 2.27315 0 3.357802 2.166054 0 3.411442 1.801927 0 3.422152 1.373544 0 3.406086 0.9344503 0 3.416797 -0.2832175 -0.6968898 -4.142196 -0.4023755 -0.6968898 -4.071168 -0.5164976 -0.6968898 -3.929665 -0.6050568 -0.6968898 -3.796299 -0.6287429 -0.6968898 -3.694864 -0.6409899 -0.6968898 -3.560616 -0.647124 -0.6968898 -3.393586 -0.6477684 -0.6968898 -3.178024 -2.015836 -0.6968898 -3.230432 -2.112223 -0.6968898 -3.235788 -2.1979 -0.6968898 -3.134045 -2.1979 -0.6968898 -3.032306 -2.149707 -0.6968898 -2.930563 -1.790935 -0.6968898 -2.453986 -1.292939 -0.6968327 -1.709671 -1.110876 -0.6614705 -1.227739 -1.121586 -0.6085345 -1.051031 -1.234037 -0.5772221 -0.9599995 -1.464516 -0.6005294 -0.9438236 -1.612798 -0.638853 -1.000874 -1.839129 -0.6823593 -1.158127 -2.071726 -0.695017 -1.296181 -2.354374 -0.6968898 -1.494887 -2.591916 -0.6968898 -1.672702 -2.798826 -0.6968898 -1.824204 -3.017183 -0.6968898 -1.977411 -3.168011 -0.6968898 -2.104296 -3.307236 -0.6968898 -2.195328 -3.462525 -0.6968898 -2.222102 -3.574975 -0.6968898 -2.109651 -3.607104 -0.6968898 -1.922234 -3.408977 -0.6968898 -0.7709526 -3.435751 -0.6968898 -0.6585023 -3.553556 -0.6968898 -0.6317278 -3.783812 -0.6968898 -0.5728256 -3.97123 -0.6968898 -0.5192775 -4.174713 -0.6968898 -0.4014717 -4.297873 -0.6968898 -0.2408279 -4.37284 -0.6968898 -0.06411975 -4.437098 -0.6968898 0.1018789 -4.421033 -0.6968898 0.2411037 -4.378194 -0.6968898 0.433876 -4.271099 -0.6968898 0.5784552 -4.072971 -0.6968898 0.6909063 -3.821296 -0.6968898 0.7337446 -3.698136 -0.6968898 0.7658732 -3.558911 -0.6968898 0.8301306 -3.44646 -0.6968898 0.9747101 -3.451815 -0.6968898 1.263869 -3.462524 -0.6968898 1.681543 -3.505362 -0.6968898 2.051024 -3.521427 -0.6968898 2.233087 -3.473234 -0.6968898 2.29199 -3.382202 -0.6968898 2.275926 -3.226913 -0.6968898 2.195604 -2.680724 -0.6968898 1.815413 -2.354082 -0.6968898 1.569092 -1.893569 -0.692166 1.295998 -1.561572 -0.6481323 1.119289 -1.395573 -0.6078956 1.065742 -1.245639 -0.6105057 1.129999 -1.170672 -0.6312378 1.210321 -1.159963 -0.6637198 1.333481 -1.186736 -0.6911614 1.536963 -1.315251 -0.6965557 1.697607 -1.508024 -0.6968898 2.029605 -1.770409 -0.6968898 2.420505 -2.011375 -0.6968898 2.784631 -2.257695 -0.6968898 3.079145 -2.289824 -0.6968898 3.164822 -2.316598 -0.6968898 3.261208 -2.27376 -0.6968898 3.357594 -2.166664 -0.6968898 3.411142 -1.802537 -0.6968898 3.421852 -1.374153 -0.6968898 3.405786 -0.9350603 -0.6968898 3.416497 -0.1471789 -0.6968899 -4.170805 0.05242764 -0.6968898 -4.136075 0.2224285 -0.6968898 -4.061679 0.386756 -0.6968898 -3.918835 0.5123882 -0.6968898 -3.785724 0.5529597 -0.6968898 -3.685137 0.5835513 -0.6968898 -3.552275 0.609546 -0.6968898 -3.387139 0.6303206 -0.6968898 -3.174052 2.014617 -0.6968898 -3.230432 2.111003 -0.6968898 -3.235794 2.196513 -0.6968898 -3.134834 2.195552 -0.6968898 -3.034154 2.146238 -0.6968898 -2.933235 1.781256 -0.6968898 -2.46119 1.281786 -0.6968898 -1.71955 1.10713 -0.6968898 -1.231866 1.118748 -0.6967763 -1.05415 1.229428 -0.6968058 -0.9645715 1.451382 -0.6968898 -0.9542691 1.589126 -0.6968898 -1.017784 1.788674 -0.6968898 -1.190203 1.984951 -0.6968898 -1.346924 2.206585 -0.6968898 -1.574833 2.444127 -0.6968898 -1.752648 2.651037 -0.6968898 -1.904151 2.869394 -0.6968898 -2.057358 3.020222 -0.6968898 -2.184243 3.159447 -0.6968898 -2.275274 3.314736 -0.6968898 -2.302048 3.427187 -0.6968898 -2.189598 3.459316 -0.6968898 -2.002181 3.261188 -0.6968898 -0.8508993 3.287962 -0.6968898 -0.7384491 3.405768 -0.6968898 -0.7116746 3.636024 -0.6968898 -0.6527723 3.823442 -0.6968898 -0.5992242 4.026924 -0.6968898 -0.4814184 4.150084 -0.6968898 -0.3207747 4.225051 -0.6968898 -0.1440665 4.289309 -0.6968898 0.02193212 4.273244 -0.6968898 0.1611569 4.230405 -0.6968898 0.3539292 4.12331 -0.6968898 0.4985084 3.925183 -0.6968898 0.6109595 3.673507 -0.6968898 0.6537979 3.550347 -0.6968898 0.6859264 3.411122 -0.6968898 0.7501838 3.298671 -0.6968898 0.8947634 3.304026 -0.6968898 1.183922 3.314735 -0.6968898 1.601596 3.357574 -0.6968898 1.971078 3.373638 -0.6968898 2.153141 3.325445 -0.6968898 2.212043 3.234414 -0.6968898 2.195979 3.079125 -0.6968898 2.115657 2.635895 -0.6968898 1.786521 2.342478 -0.6968898 1.559877 1.892349 -0.6968898 1.295897 1.560352 -0.6968898 1.119289 1.394354 -0.6967128 1.065742 1.244419 -0.6961461 1.129999 1.169452 -0.6960903 1.210321 1.158743 -0.696666 1.333481 1.185516 -0.6968898 1.536963 1.314032 -0.6968898 1.697607 1.506804 -0.6968898 2.029605 1.769189 -0.6968898 2.419826 2.009276 -0.6968898 2.782432 2.254883 -0.6968898 3.076705 2.287685 -0.6968898 3.163133 2.31511 -0.6968898 3.260336 2.27254 -0.6968898 3.357503 2.165444 -0.6968898 3.411142 1.801317 -0.6968898 3.421852 1.372934 -0.6968898 3.405786 0.9338404 -0.6968898 3.416497 -0.9344503 0 3.416797 0.9344503 0 3.416797 -0.9350603 -0.6968898 3.416497 0.9338404 -0.6968898 3.416497 0.991584 -0.6968898 4.084407 1.410455 -0.6968898 5.131826 1.263816 -0.6968898 5.885968 0.7610551 -0.6968898 6.24209 -0.03498327 -0.6968898 6.409677 -0.8518898 -0.6968898 6.231616 -1.386088 -0.6968898 5.137188 -0.9567216 -0.6968898 4.010726 -1.213259 -0.6968898 5.817885 0.991584 0.001567542 4.084407 1.410455 0.001567542 5.131826 1.263816 0.001567542 5.885968 0.7610551 0.001567542 6.24209 -0.03498327 0.001567542 6.409677 -0.8518898 0.001567542 6.231616 -1.386088 0.001567542 5.137188 -0.9567216 0.001567542 4.010726 -1.213259 0.001567542 5.817885</float_array>
          <technique_common>
            <accessor source="#Silver-cross-mesh-positions-array" count="328" stride="3">
              <param name="X" type="float"/>
              <param name="Y" type="float"/>
              <param name="Z" type="float"/>
            </accessor>
          </technique_common>
        </source>
        <source id="Silver-cross-mesh-normals">
          <float_array id="Silver-cross-mesh-normals-array" count="519">8.74753e-4 0.9999996 4.29335e-4 -8.74752e-4 -0.9999996 -4.29346e-4 0.5907763 -1.7037e-4 -0.8068354 0.9996711 -8.63941e-4 -0.02563244 0.5780174 0 0.8160246 0.5743598 -1.51099e-4 -0.8186029 0.9933455 -8.19554e-4 -0.1151702 0.20601 0 0.97855 0.6437556 -2.34735e-4 -0.7652313 0.9961294 -8.34033e-4 -0.08789521 0.1714141 2.73321e-4 -0.985199 0.5472495 -1.19278e-4 -0.8369695 0.7739554 -9.4956e-4 0.6332395 0.4009137 4.27749e-5 -0.9161159 0.1699069 2.74813e-4 -0.9854601 -0.1737868 -2.71048e-4 0.9847832 0.6560506 -2.49861e-4 -0.7547169 -0.7071077 9.2298e-4 -0.7071053 -0.4594227 2.04364e-5 0.8882178 0.7272415 -3.4157e-4 -0.6863816 -0.9856218 9.35286e-4 -0.1689648 -0.5961838 1.76761e-4 0.8028481 0.9274024 -6.50835e-4 -0.3740648 -0.9855127 7.9001e-4 0.1695997 -0.6112998 1.94932e-4 0.7913992 0.9745012 -7.56474e-4 -0.2243812 -0.9728057 9.51021e-4 -0.231621 -0.5058794 7.22068e-5 0.8626042 0.9878358 -7.97656e-4 -0.1554986 -0.2216259 6.12785e-4 -0.9751316 -0.4696398 3.17487e-5 0.8828582 0.9952808 -8.29395e-4 -0.09703332 -0.2478312 6.33013e-4 -0.9688031 -0.3070026 -1.40119e-4 0.9517087 -0.04069477 4.64967e-4 -0.9991715 -0.2747216 6.53365e-4 -0.9615236 0.3939163 -7.39544e-4 0.919146 -0.05554449 4.77661e-4 -0.9984562 -0.5010372 8.09875e-4 -0.8654255 0.7310538 -9.32786e-4 0.6823193 0.7630785 -3.9011e-4 -0.6463057 -0.7936055 9.55957e-4 -0.6084319 0.9962406 -9.09098e-4 0.08662474 0.9999541 -8.79264e-4 0.009545266 -0.9205818 9.74458e-4 -0.3905487 0.9914541 -8.1159e-4 -0.130454 0.8984672 -9.74844e-4 0.4390397 -0.9325676 9.70933e-4 -0.3609942 0.7808689 -4.15101e-4 -0.624695 0.7911062 -9.55108e-4 0.6116783 -0.9934085 8.19603e-4 0.1146258 0.8647892 -5.41061e-4 -0.5021349 0.8294379 -9.65976e-4 0.5585982 -0.9761865 7.60448e-4 0.2169318 0.8298471 -4.86499e-4 -0.5579907 0.9414455 -9.68478e-4 0.3371641 -0.8035571 4.47284e-4 0.5952275 0.8337981 -4.92453e-4 -0.5520696 0.9978697 -8.4525e-4 -0.06523424 -0.4936071 5.8729e-5 0.8696851 0.7677336 -3.9655e-4 -0.640769 0.6291164 -2.16625e-4 -0.7773112 -0.1677994 -2.76639e-4 0.9858211 0.9349289 -6.65749e-4 -0.3548348 0.04636675 3.88488e-4 -0.9989245 -0.2524202 -1.94698e-4 0.9676177 0.9624269 -7.25417e-4 -0.2715403 -0.4187353 7.56509e-4 -0.9081081 -0.4190559 -2.32493e-5 0.9079604 0.9159494 -9.74069e-4 0.4012929 -0.6537978 8.97191e-4 -0.7566688 -0.7893519 4.27077e-4 0.6139409 0.4478242 -7.76121e-4 0.8941213 -0.6239638 8.81704e-4 -0.7814528 -0.9998282 8.8262e-4 -0.01851558 0.02940106 -4.55247e-4 0.9995676 -0.716908 9.26856e-4 -0.6971672 -0.9996711 8.85828e-4 -0.02563244 -0.03747707 -3.96596e-4 0.9992975 -0.5992631 8.68345e-4 -0.8005518 -0.9933454 9.18724e-4 -0.1151702 0.02438622 -4.50915e-4 0.9997026 -0.5907762 8.63666e-4 -0.8068352 -0.9961294 9.09772e-4 -0.08789521 -0.2129697 0 0.9770588 -0.2058009 6.00611e-4 -0.9785938 -0.5743601 8.5434e-4 -0.8186024 -0.7739548 4.05131e-4 0.6332408 -0.7531582 0 0.6578395 -0.512018 8.17209e-4 -0.8589744 -0.6437548 8.92231e-4 -0.7652313 0.173785 -5.75258e-4 0.9847835 -0.7783957 9.50965e-4 -0.6277732 -0.54725 8.3855e-4 -0.8369688 0.4594225 -7.83723e-4 0.8882175 -0.83306 9.66816e-4 -0.5531819 -0.1699058 5.72162e-4 -0.9854602 0.5713009 -8.52738e-4 0.8207404 -0.9738031 9.49927e-4 -0.2273908 0.7071074 -3.15038e-4 -0.7071062 0.6020922 -8.69982e-4 0.7984261 -0.9958642 9.10658e-4 -0.09084993 0.9856219 -7.90168e-4 -0.1689646 0.5100822 -8.15846e-4 0.8601253 -0.9993259 8.90315e-4 -0.03669959 0.9855127 -9.35471e-4 0.1695997 0.469931 -7.90389e-4 0.882703 -0.9999952 8.76514e-4 -0.00298959 0.9728059 -7.52285e-4 -0.2316209 0.3071514 -6.77523e-4 0.9516604 0.03827971 3.95875e-4 -0.9992671 0.2216256 2.24831e-4 -0.9751318 -0.3939191 -5.0036e-5 0.9191452 0.05548089 3.80488e-4 -0.9984597 0.2478314 1.99259e-4 -0.9688032 -0.7310103 3.46611e-4 0.6823664 -0.7649154 9.46187e-4 -0.6441301 0.2747217 1.72605e-4 -0.9615239 -0.9962213 8.34637e-4 0.08684748 -0.9999997 8.75108e-4 0 0.5010377 -6.688e-5 -0.8654256 -0.9914702 9.23663e-4 -0.1303306 -0.9037405 6.06903e-4 0.4280802 0.7936059 -4.32983e-4 -0.6084321 -0.780884 9.51718e-4 -0.6246755 -0.7989213 4.40623e-4 0.6014356 0.9205811 -6.37731e-4 -0.390551 -0.8647893 9.72641e-4 -0.5021339 -0.831129 4.88568e-4 0.5560795 0.9325678 -6.60586e-4 -0.3609943 -0.8302961 9.66121e-4 -0.5573217 -0.9354881 6.66819e-4 0.3533579 0.9934083 -9.1878e-4 0.1146258 -0.8339316 9.66995e-4 -0.551867 -0.9981518 8.99723e-4 -0.06076383 0.9761858 -9.47584e-4 0.216934 -0.7670769 9.47008e-4 -0.6415547 -0.6290501 8.8434e-4 -0.7773643 0.8035569 -9.58632e-4 0.5952273 -0.9363276 9.70048e-4 -0.3511263 -0.07006055 4.89789e-4 -0.9975426 0.4936075 -8.05416e-4 0.8696844 -0.9635179 9.58275e-4 -0.2676425 0.3590645 8.66606e-5 -0.9333127 0.1677992 -5.70224e-4 0.985821 -0.9138115 6.25058e-4 0.4061383 0.5706078 -1.46792e-4 -0.8212227 0.2524202 -6.3653e-4 0.9676175 -0.4472121 6.99177e-6 0.894428 0.5104014 -7.7261e-5 -0.8599363 0.419056 -7.56701e-4 0.9079601 -0.02940106 -4.03781e-4 0.9995676 0.5751184 -1.51839e-4 -0.8180702 0.7893517 -9.54553e-4 0.6139407 0.03747707 -4.62192e-4 0.9992974 0.5992633 -1.80423e-4 -0.800552 0.9998282 -8.67234e-4 -0.01851558 -0.02438622 -4.08232e-4 0.9997026 -0.999317 4.44639e-4 -0.03695064 0 0 1 -0.934422 0 -0.3561679 -0.9692463 0 0.2460925 0.9816155 0 0.1908693 0.9285062 0 -0.3713169 0.9963209 -4.17081e-4 -0.08569979 0 -1 0 0 -1 -1.50906e-7 0 -1 0 0 -1 0 0 1 0 0 1 0 0 1 0 4.79945e-5 0.9999969 -0.002486407</float_array>
          <technique_common>
            <accessor source="#Silver-cross-mesh-normals-array" count="173" stride="3">
              <param name="X" type="float"/>
              <param name="Y" type="float"/>
              <param name="Z" type="float"/>
            </accessor>
          </technique_common>
        </source>
        <source id="Silver-cross-mesh-map-0">
          <float_array id="Silver-cross-mesh-map-0-array" count="2000">0.2115879 0.05827027 0.20684 0.06110018 0.2022931 0.0667383 0.1987645 0.07205206 0.1978207 0.07609373 0.1973327 0.08144265 0.1970883 0.08809781 0.1970627 0.09668666 0.1425533 0.09459847 0.1387129 0.09438508 0.1352992 0.09843891 0.1352992 0.1024928 0.1372194 0.1065465 0.1515143 0.1255352 0.1713564 0.1551917 0.1786106 0.1743938 0.1781838 0.1814345 0.1737034 0.1850616 0.1645201 0.1857061 0.158612 0.183433 0.1495941 0.1771674 0.1403264 0.1716669 0.1290646 0.1637495 0.1196001 0.1566647 0.1113559 0.1506283 0.1026557 0.1445239 0.09664607 0.1394683 0.0910989 0.1358412 0.08491152 0.1347744 0.08043098 0.1392549 0.07915085 0.1467224 0.08704507 0.1925941 0.08597832 0.1970745 0.0812844 0.1981413 0.07211005 0.2004882 0.06464266 0.2026218 0.05653506 0.2073156 0.05162787 0.2137162 0.0486409 0.220757 0.04608058 0.2273712 0.04672074 0.2329185 0.04842758 0.2405991 0.05269467 0.2463598 0.06058883 0.2508403 0.07061666 0.2525472 0.07552379 0.2538274 0.08107107 0.2563875 0.08555155 0.2621482 0.08533817 0.2736695 0.08491152 0.2903113 0.08320462 0.305033 0.08256459 0.312287 0.08448475 0.314634 0.08811187 0.3139938 0.09429919 0.3107935 0.1160615 0.2956452 0.1290763 0.2858307 0.147425 0.2749497 0.1606531 0.2679089 0.1672672 0.2657753 0.1732411 0.2683355 0.1762281 0.2715359 0.1766548 0.2764431 0.175588 0.2845507 0.1704674 0.2909514 0.1627866 0.3041796 0.1523321 0.3197545 0.1427311 0.3342629 0.1329167 0.3459975 0.1316366 0.3494111 0.1305698 0.3532515 0.1322766 0.3570919 0.1365438 0.3592255 0.1510521 0.3596522 0.1681205 0.359012 0.1856158 0.3594388 0.2600802 0.3594388 0.2775755 0.359012 0.2946441 0.3596522 0.3091524 0.3592255 0.3134194 0.3570882 0.3151156 0.3532168 0.3140229 0.3493438 0.3127159 0.3459002 0.3029299 0.3341752 0.2933638 0.3197274 0.2829096 0.3041796 0.2752286 0.2909514 0.2701081 0.2845507 0.2690412 0.2764431 0.2694681 0.2715359 0.2724549 0.2683355 0.278429 0.2657753 0.285043 0.2679089 0.2982711 0.2749456 0.316206 0.2854636 0.327897 0.294494 0.3455569 0.3076081 0.3517444 0.3108085 0.3553714 0.3114485 0.3572915 0.3091016 0.3566514 0.3018475 0.3549447 0.287126 0.3545178 0.270484 0.3543046 0.2589628 0.358785 0.2532023 0.3643324 0.2506419 0.3692395 0.2493617 0.3792673 0.2476549 0.3871615 0.2431744 0.3914286 0.2374137 0.3931354 0.2297331 0.3937755 0.2241858 0.3912153 0.2175717 0.3882283 0.2105309 0.3833211 0.2041302 0.3752135 0.1994364 0.3677461 0.1973028 0.3585718 0.1949559 0.3538779 0.1938891 0.3528111 0.1894086 0.3607052 0.143537 0.3594251 0.1360695 0.3549447 0.131589 0.3487572 0.1326558 0.3432102 0.1362829 0.3372005 0.1413385 0.3285002 0.1474428 0.3202561 0.1534793 0.3107915 0.1605641 0.3019608 0.169645 0.2941403 0.1758893 0.2861895 0.1827593 0.2807012 0.1852899 0.2718577 0.1848795 0.2674477 0.1813103 0.2669848 0.1742293 0.2739439 0.1547981 0.2938447 0.1252481 0.308387 0.1064401 0.3103519 0.102419 0.3103902 0.09840744 0.3069831 0.09438484 0.3031426 0.09459847 0.2479867 0.09684491 0.247159 0.0883547 0.2461234 0.081775 0.2449045 0.07648128 0.2432879 0.07247346 0.2382822 0.06716978 0.2317348 0.06147831 0.2249613 0.05851405 0.2170081 0.05713027 0.2115636 0.5732708 0.2169838 0.5721309 0.224937 0.5735146 0.2317106 0.576479 0.238258 0.5821704 0.2432637 0.5874741 0.2448803 0.5914819 0.2460991 0.5967757 0.2471346 0.6033553 0.2479624 0.6118456 0.3031184 0.6095992 0.3069588 0.6093855 0.3103659 0.6134081 0.3103277 0.6174196 0.3083627 0.6214407 0.2938203 0.6402488 0.2739196 0.6697987 0.2669605 0.68923 0.2674233 0.6963109 0.2718335 0.6998801 0.2806768 0.7002906 0.2861652 0.6977599 0.294116 0.69089 0.3019365 0.6846457 0.3107672 0.6755648 0.3202318 0.6684799 0.3284759 0.6624435 0.3371762 0.6563391 0.3431859 0.6512835 0.3487329 0.6476565 0.3549204 0.6465896 0.3594009 0.6510701 0.3606809 0.6585376 0.3527868 0.7044093 0.3538536 0.7088897 0.3585473 0.7099565 0.3677218 0.7123034 0.3751892 0.7144369 0.3832967 0.7191309 0.388204 0.7255316 0.391191 0.7325723 0.3937512 0.7391864 0.3931112 0.7447336 0.3914043 0.7524145 0.3871372 0.7581751 0.379243 0.7626556 0.3692151 0.7643625 0.3643081 0.7656425 0.3587607 0.7682028 0.3542803 0.7739633 0.3544936 0.7854847 0.3549204 0.8021264 0.3566272 0.8168482 0.3572673 0.8241023 0.3553471 0.8264492 0.35172 0.8258091 0.3455327 0.8226087 0.3278726 0.8094946 0.3161817 0.8004643 0.2982468 0.7899461 0.2850188 0.7829094 0.2784047 0.7807759 0.2724306 0.7833362 0.2694438 0.7865366 0.269017 0.7914437 0.2700837 0.7995513 0.2752043 0.8059518 0.2828853 0.81918 0.2933396 0.834728 0.3029057 0.8491757 0.3126916 0.8609007 0.3139986 0.8643442 0.3150913 0.8682172 0.3133951 0.8720888 0.3091281 0.874226 0.2946197 0.8746528 0.2775512 0.8740126 0.2600559 0.8744395 0.1855914 0.8744395 0.1680963 0.8740126 0.1510278 0.8746528 0.1365195 0.874226 0.1322523 0.8720925 0.1305456 0.868252 0.1316123 0.8644116 0.1328924 0.8609979 0.1427068 0.8492633 0.1523079 0.8347551 0.1627623 0.81918 0.1704431 0.8059518 0.1755637 0.7995513 0.1766305 0.7914437 0.1762038 0.7865366 0.1732168 0.7833362 0.1672428 0.7807759 0.1606288 0.7829094 0.1474006 0.7899501 0.1290521 0.8008314 0.1160373 0.8106458 0.09427493 0.8257941 0.08808755 0.8289945 0.08446049 0.8296344 0.08254027 0.8272876 0.08318036 0.8200334 0.08488726 0.8053119 0.08531391 0.7886701 0.0855273 0.7771489 0.08104676 0.7713883 0.07549953 0.7688279 0.07059228 0.7675477 0.06056451 0.765841 0.05267035 0.7613605 0.0484032 0.7555999 0.04669642 0.7479191 0.04605627 0.7423718 0.04861658 0.7357576 0.05160361 0.728717 0.05651074 0.7223163 0.06461828 0.7176224 0.07208579 0.7154888 0.08126014 0.7131419 0.08595395 0.7120751 0.08702069 0.7075946 0.07912653 0.661723 0.08040666 0.6542555 0.0848872 0.649775 0.09107446 0.6508418 0.09662181 0.6544689 0.1026313 0.6595246 0.1113316 0.6656289 0.1195757 0.6716654 0.1290403 0.6787502 0.1403022 0.6866675 0.1495698 0.6921681 0.1585877 0.6984336 0.1644958 0.7007068 0.1736791 0.7000623 0.1781595 0.6964352 0.1785863 0.6893945 0.1713321 0.6701924 0.15149 0.6405358 0.1371951 0.6215471 0.135275 0.6174933 0.135275 0.6134396 0.1386886 0.6093857 0.1425291 0.6095992 0.1970383 0.6116873 0.1970641 0.6030984 0.1973084 0.5964433 0.1977964 0.5910944 0.1987401 0.5870528 0.2022688 0.581739 0.2068158 0.5761008 0.3418232 0.577964 0.3418169 0.577961 0.3396782 0.576395 0.3396845 0.5763981 0.402875 0.6118075 0.4028686 0.6118044 0.402758 0.6074873 0.4027642 0.6074904 0.3663036 0.6300839 0.3669996 0.6300839 0.3669996 0.6308729 0.3663036 0.6308729 0.3396845 0.5763981 0.3396782 0.576395 0.3374212 0.5748115 0.3374276 0.5748145 0.4033177 0.6156265 0.4033114 0.6156235 0.4028686 0.6118044 0.402875 0.6118075 0.3653846 0.6300839 0.3663036 0.6300839 0.3663036 0.6308729 0.3653846 0.6308729 0.3374276 0.5748145 0.3374212 0.5748115 0.3358623 0.5734999 0.3358685 0.573503 0.4034838 0.6175084 0.4034774 0.6175053 0.4033114 0.6156235 0.4033177 0.6156265 0.3691554 0.5525023 0.3691491 0.5524992 0.3670859 0.5521403 0.3670922 0.5521434 0.3358685 0.573503 0.3358623 0.5734999 0.3344232 0.572559 0.3344296 0.5725621 0.4029856 0.6181172 0.4029793 0.6181141 0.4034774 0.6175053 0.4034838 0.6175084 0.3709126 0.5532713 0.3709062 0.5532682 0.3691491 0.5524992 0.3691554 0.5525023 0.3344296 0.5725621 0.3344232 0.572559 0.3328182 0.5722823 0.3328245 0.5722854 0.4020448 0.6179512 0.4020384 0.6179481 0.4029793 0.6181141 0.4029856 0.6181172 0.3726111 0.5547478 0.3726047 0.5547447 0.3709062 0.5532682 0.3709126 0.5532713 0.3328245 0.5722854 0.3328182 0.5722823 0.3316558 0.5734446 0.3316621 0.5734477 0.4004396 0.6171209 0.4004334 0.6171178 0.4020384 0.6179481 0.4020448 0.6179512 0.3739096 0.5561236 0.3739033 0.5561205 0.3726047 0.5547447 0.3726111 0.5547478 0.3316621 0.5734477 0.3316558 0.5734446 0.3313238 0.5753818 0.3313301 0.5753849 0.3958584 0.6137189 0.3958521 0.6137158 0.4004334 0.6171178 0.4004396 0.6171209 0.3743289 0.5571633 0.3743227 0.5571602 0.3739033 0.5561205 0.3739096 0.5561236 0.3313301 0.5753849 0.3313238 0.5753818 0.3333716 0.5872815 0.3333779 0.5872846 0.3928256 0.6113763 0.3928193 0.6113733 0.3958521 0.6137158 0.3958584 0.6137189 0.3746451 0.5585366 0.3746388 0.5585335 0.3743227 0.5571602 0.3743289 0.5571633 0.3333779 0.5872846 0.3333716 0.5872815 0.3330948 0.5884438 0.3331012 0.5884469 0.388173 0.6086478 0.3881667 0.6086447 0.3928193 0.6113733 0.3928256 0.6113763 0.3749138 0.5602434 0.3749074 0.5602403 0.3746388 0.5585335 0.3746451 0.5585366 0.3331012 0.5884469 0.3330948 0.5884438 0.3318772 0.5887206 0.3318836 0.5887237 0.3847414 0.6068224 0.3847352 0.6068193 0.3881667 0.6086447 0.388173 0.6086478 0.3751285 0.5624459 0.3751222 0.5624428 0.3749074 0.5602403 0.3749138 0.5602434 0.3318836 0.5887237 0.3318772 0.5887206 0.3294973 0.5893294 0.3295035 0.5893325 0.3830257 0.6062689 0.3830194 0.6062658 0.3847352 0.6068193 0.3847414 0.6068224 0.3894367 0.5618632 0.3894305 0.5618601 0.3751222 0.5624428 0.3751285 0.5624459 0.3295035 0.5893325 0.3294973 0.5893294 0.3275601 0.5898829 0.3275664 0.589886 0.3814759 0.6069331 0.3814696 0.60693 0.3830194 0.6062658 0.3830257 0.6062689 0.390433 0.5618078 0.3904267 0.5618047 0.3894305 0.5618601 0.3894367 0.5618632 0.3275664 0.589886 0.3275601 0.5898829 0.3254569 0.5911005 0.3254632 0.5911036 0.3807011 0.6077633 0.3806948 0.6077602 0.3814696 0.60693 0.3814759 0.6069331 0.3913169 0.5628513 0.3913106 0.5628482 0.3904267 0.5618047 0.390433 0.5618078 0.3254632 0.5911036 0.3254569 0.5911005 0.3241839 0.592761 0.3241902 0.592764 0.3805904 0.6090363 0.3805841 0.6090332 0.3806948 0.6077602 0.3807011 0.6077633 0.3913069 0.563892 0.3913006 0.5638888 0.3913106 0.5628482 0.3913169 0.5628513 0.3241902 0.592764 0.3241839 0.592761 0.323409 0.5945874 0.3234153 0.5945905 0.3808671 0.6111395 0.3808608 0.6111364 0.3805841 0.6090332 0.3805904 0.6090363 0.3907972 0.564935 0.3907909 0.5649319 0.3913006 0.5638888 0.3913069 0.563892 0.3234153 0.5945905 0.323409 0.5945874 0.3227449 0.5963032 0.3227512 0.5963063 0.3821955 0.6128 0.3821892 0.6127968 0.3808608 0.6111364 0.3808671 0.6111395 0.3870247 0.5698142 0.3870184 0.5698111 0.3907909 0.5649319 0.3907972 0.564935 0.3227512 0.5963063 0.3227449 0.5963032 0.3229109 0.5977423 0.3229172 0.5977454 0.384188 0.6162315 0.3841817 0.6162284 0.3821892 0.6127968 0.3821955 0.6128 0.3818622 0.5774798 0.3818559 0.5774767 0.3870184 0.5698111 0.3870247 0.5698142 0.3229172 0.5977454 0.3229109 0.5977423 0.3233537 0.5997348 0.32336 0.5997378 0.3869 0.6202648 0.3868937 0.6202617 0.3841817 0.6162284 0.384188 0.6162315 0.3800569 0.5825206 0.3800506 0.5825175 0.3818559 0.5774767 0.3818622 0.5774798 0.32336 0.5997378 0.3233537 0.5997348 0.3244606 0.6012292 0.324467 0.6012322 0.3893816 0.6240128 0.3893753 0.6240097 0.3868937 0.6202617 0.3869 0.6202648 0.380177 0.5843575 0.3801707 0.5843544 0.3800506 0.5825175 0.3800569 0.5825206 0.324467 0.6012322 0.3244606 0.6012292 0.3265085 0.6023915 0.3265148 0.6023945 0.3919202 0.6270545 0.3919139 0.6270513 0.3893753 0.6240097 0.3893816 0.6240128 0.381321 0.5852833 0.3813147 0.5852802 0.3801707 0.5843544 0.380177 0.5843575 0.3265148 0.6023945 0.3265085 0.6023915 0.3291099 0.6028342 0.3291162 0.6028373 0.3922592 0.6279478 0.3922529 0.6279447 0.3919139 0.6270513 0.3919202 0.6270545 0.3836151 0.5853899 0.3836088 0.5853868 0.3813147 0.5852802 0.381321 0.5852833 0.3291162 0.6028373 0.3291099 0.6028342 0.3303828 0.6031664 0.3303892 0.6031695 0.3925427 0.6289525 0.3925364 0.6289494 0.3922529 0.6279447 0.3922592 0.6279478 0.3850389 0.5847334 0.3850325 0.5847303 0.3836088 0.5853868 0.3836151 0.5853899 0.3303892 0.6031695 0.3303828 0.6031664 0.3318219 0.6038305 0.3318282 0.6038336 0.3921027 0.6299568 0.3920964 0.6299537 0.3925364 0.6289494 0.3925427 0.6289525 0.3871014 0.5829512 0.3870951 0.5829481 0.3850325 0.5847303 0.3850389 0.5847334 0.3318282 0.6038336 0.3318219 0.6038305 0.3329842 0.6053249 0.3329905 0.605328 0.3909958 0.6305112 0.3909894 0.6305081 0.3920964 0.6299537 0.3921027 0.6299568 0.3891302 0.5813313 0.3891239 0.5813282 0.3870951 0.5829481 0.3871014 0.5829512 0.3329905 0.605328 0.3329842 0.6053249 0.3329288 0.6083137 0.3329352 0.6083168 0.3872321 0.6306219 0.3872258 0.6306188 0.3909894 0.6305081 0.3909958 0.6305112 0.391421 0.5789756 0.3914147 0.5789725 0.3891239 0.5813282 0.3891302 0.5813313 0.3329352 0.6083168 0.3329288 0.6083137 0.3328182 0.6126308 0.3328245 0.6126339 0.3828043 0.6304559 0.382798 0.6304528 0.3872258 0.6306188 0.3872321 0.6306219 0.3938762 0.5771377 0.3938699 0.5771346 0.3914147 0.5789725 0.391421 0.5789756 0.3328245 0.6126339 0.3328182 0.6126308 0.3323754 0.6164498 0.3323817 0.6164529 0.3782657 0.6305665 0.3782594 0.6305635 0.382798 0.6304528 0.3828043 0.6304559 0.3960149 0.5755718 0.3960086 0.5755687 0.3938699 0.5771346 0.3938762 0.5771377 0.3323817 0.6164529 0.3323754 0.6164498 0.3322093 0.6183316 0.3322156 0.6183347 0.36444 0.6300839 0.3653846 0.6300839 0.3653846 0.6308729 0.36444 0.6308729 0.3670922 0.5521434 0.3670859 0.5521403 0.3656798 0.552436 0.3656861 0.5524391 0.3982719 0.5739882 0.3982656 0.5739851 0.3960086 0.5755687 0.3960149 0.5755718 0.3322156 0.6183347 0.3322093 0.6183316 0.3327075 0.6189404 0.3327137 0.6189435 0.3638195 0.6300839 0.36444 0.6300839 0.36444 0.6308729 0.3638195 0.6308729 0.3656861 0.5524391 0.3656798 0.552436 0.3644482 0.5531702 0.3644545 0.5531733 0.3998308 0.5726767 0.3998246 0.5726736 0.3982656 0.5739851 0.3982719 0.5739882 0.3327137 0.6189435 0.3327075 0.6189404 0.3336484 0.6187744 0.3336547 0.6187775 0.3644545 0.5531733 0.3644482 0.5531702 0.3632686 0.5546327 0.3632749 0.5546358 0.4012699 0.5717358 0.4012635 0.5717327 0.3998246 0.5726736 0.3998308 0.5726767 0.3336547 0.6187775 0.3336484 0.6187744 0.3352535 0.6179442 0.3352597 0.6179473 0.3632749 0.5546358 0.3632686 0.5546327 0.3623532 0.5560113 0.3623595 0.5560143 0.402875 0.5714591 0.4028686 0.571456 0.4012635 0.5717327 0.4012699 0.5717358 0.3352597 0.6179473 0.3352535 0.6179442 0.3408989 0.6140145 0.3409052 0.6140176 0.3623595 0.5560143 0.3623532 0.5560113 0.3621084 0.5570597 0.3621147 0.5570628 0.4040372 0.5726214 0.4040309 0.5726183 0.4028686 0.571456 0.402875 0.5714591 0.3409052 0.6140176 0.3408989 0.6140145 0.3442751 0.6114685 0.3442814 0.6114715 0.3621147 0.5570628 0.3621084 0.5570597 0.3619818 0.5584473 0.3619881 0.5584504 0.4043693 0.5745585 0.404363 0.5745554 0.4040309 0.5726183 0.4040372 0.5726214 0.3442814 0.6114715 0.3442751 0.6114685 0.349035 0.6086457 0.3490414 0.6086488 0.3619881 0.5584504 0.3619818 0.5584473 0.3619185 0.5601737 0.3619247 0.5601768 0.4023215 0.5864583 0.4023151 0.5864552 0.404363 0.5745554 0.4043693 0.5745585 0.3490414 0.6086488 0.349035 0.6086457 0.3524666 0.6068193 0.3524729 0.6068224 0.3619247 0.5601768 0.3619185 0.5601737 0.3619118 0.5624018 0.3619181 0.5624049 0.4025982 0.5876206 0.4025919 0.5876175 0.4023151 0.5864552 0.4023215 0.5864583 0.3524729 0.6068224 0.3524666 0.6068193 0.3541824 0.6062658 0.3541887 0.6062689 0.3619181 0.5624049 0.3619118 0.5624018 0.3477713 0.5618601 0.3477776 0.5618632 0.4038159 0.5878973 0.4038096 0.5878942 0.4025919 0.5876175 0.4025982 0.5876206 0.3541887 0.6062689 0.3541824 0.6062658 0.3557322 0.60693 0.3557384 0.6069331 0.3477776 0.5618632 0.3477713 0.5618601 0.346775 0.5618047 0.3467813 0.5618078 0.4061958 0.5885062 0.4061895 0.5885031 0.4038096 0.5878942 0.4038159 0.5878973 0.3557384 0.6069331 0.3557322 0.60693 0.356507 0.6077602 0.3565133 0.6077633 0.3467813 0.5618078 0.346775 0.5618047 0.3458895 0.5628563 0.3458958 0.5628594 0.408133 0.5890597 0.4081267 0.5890565 0.4061895 0.5885031 0.4061958 0.5885062 0.3565133 0.6077633 0.356507 0.6077602 0.3566177 0.6090332 0.356624 0.6090363 0.3458958 0.5628594 0.3458895 0.5628563 0.3458895 0.5639079 0.3458958 0.563911 0.4102362 0.5902773 0.4102299 0.5902742 0.4081267 0.5890565 0.408133 0.5890597 0.356624 0.6090363 0.3566177 0.6090332 0.356341 0.6111364 0.3563472 0.6111395 0.3458958 0.563911 0.3458895 0.5639079 0.3463876 0.5649595 0.3463939 0.5649626 0.4115092 0.5919377 0.4115029 0.5919346 0.4102299 0.5902742 0.4102362 0.5902773 0.3563472 0.6111395 0.356341 0.6111364 0.3550126 0.6127968 0.3550189 0.6128 0.3463939 0.5649626 0.3463876 0.5649595 0.3500959 0.5698855 0.3501022 0.5698886 0.4122841 0.5937642 0.4122778 0.5937611 0.4115029 0.5919346 0.4115092 0.5919377 0.3550189 0.6128 0.3550126 0.6127968 0.3530201 0.6162284 0.3530263 0.6162315 0.3501022 0.5698886 0.3500959 0.5698855 0.3552432 0.5775789 0.3552495 0.577582 0.4129482 0.59548 0.4129419 0.5954769 0.4122778 0.5937611 0.4122841 0.5937642 0.3530263 0.6162315 0.3530201 0.6162284 0.3503081 0.6202688 0.3503143 0.6202719 0.3552495 0.577582 0.3552432 0.5775789 0.3571251 0.5825601 0.3571314 0.5825632 0.4127822 0.596919 0.4127759 0.5969159 0.4129419 0.5954769 0.4129482 0.59548 0.3503143 0.6202719 0.3503081 0.6202688 0.3478174 0.6240324 0.3478237 0.6240355 0.3571314 0.5825632 0.3571251 0.5825601 0.3570143 0.5843866 0.3570206 0.5843897 0.4123394 0.5989115 0.4123331 0.5989084 0.4127759 0.5969159 0.4127822 0.596919 0.3478237 0.6240355 0.3478174 0.6240324 0.3452714 0.6270766 0.3452777 0.6270797 0.3570206 0.5843897 0.3570143 0.5843866 0.3558521 0.5853275 0.3558583 0.5853306 0.4112325 0.6004059 0.4112262 0.6004028 0.4123331 0.5989084 0.4123394 0.5989115 0.3452777 0.6270797 0.3452714 0.6270766 0.3449393 0.6279621 0.3449456 0.6279652 0.3558583 0.5853306 0.3558521 0.5853275 0.3534698 0.5854947 0.3534761 0.5854978 0.4091846 0.6015682 0.4091783 0.6015651 0.4112262 0.6004028 0.4112325 0.6004059 0.3449456 0.6279652 0.3449393 0.6279621 0.3446626 0.6289584 0.3446689 0.6289615 0.3534761 0.5854978 0.3534698 0.5854947 0.3519371 0.584905 0.3519434 0.5849081 0.4065832 0.602011 0.4065769 0.6020079 0.4091783 0.6015651 0.4091846 0.6015682 0.3446689 0.6289615 0.3446626 0.6289584 0.3451054 0.6299546 0.3451116 0.6299577 0.3519434 0.5849081 0.3519371 0.584905 0.3495978 0.5832797 0.3496041 0.5832827 0.4053103 0.6023431 0.405304 0.60234 0.4065769 0.6020079 0.4065832 0.602011 0.3451116 0.6299577 0.3451054 0.6299546 0.3462123 0.6305081 0.3462186 0.6305112 0.3496041 0.5832827 0.3495978 0.5832797 0.3471936 0.5818527 0.3471999 0.5818558 0.4038712 0.6030073 0.4038649 0.6030042 0.405304 0.60234 0.4053103 0.6023431 0.3462186 0.6305112 0.3462123 0.6305081 0.349976 0.6306188 0.3499823 0.6306219 0.3471999 0.5818558 0.3471936 0.5818527 0.3442721 0.5797988 0.3442784 0.5798019 0.4027089 0.6045017 0.4027026 0.6044985 0.4038649 0.6030042 0.4038712 0.6030073 0.3499823 0.6306219 0.349976 0.6306188 0.3544038 0.6304528 0.3544101 0.6304559 0.3442784 0.5798019 0.3442721 0.5797988 0.3418169 0.577961 0.3418232 0.577964 0.4027642 0.6074904 0.402758 0.6074873 0.4027026 0.6044985 0.4027089 0.6045017 0.3544101 0.6304559 0.3544038 0.6304528 0.3589423 0.6305635 0.3589486 0.6305665 0.3609924 0.6300839 0.3616642 0.6300839 0.3616642 0.6308729 0.3609927 0.6308712 0.3589423 0.6305635 0.3589486 0.6305665 0.3589486 0.6305665 0.3589423 0.6305635 0.3616642 0.6300839 0.3630261 0.6300839 0.3630261 0.6308729 0.3616642 0.6308729 0.3782594 0.6305635 0.3782657 0.6305665 0.3782657 0.6305665 0.3782594 0.6305635 0.3630261 0.6300839 0.3638195 0.6300839 0.3638195 0.6308729 0.3630261 0.6308729 0.3669996 0.6300839 0.3678675 0.6300839 0.3678675 0.6308729 0.3669996 0.6308729 0.3678675 0.6300839 0.3691419 0.6300839 0.3691419 0.6308729 0.3678675 0.6308729 0.3691419 0.6300839 0.3698993 0.6300839 0.3698989 0.6308712 0.3691419 0.6308729 0.2293581 0.9516184 0.2083135 0.9470314 0.2498652 0.9473012 0.262817 0.9382086 0.2498652 0.9473828 0.2083135 0.947113 0.1990042 0.9364548 0.2665947 0.9187809 0.262817 0.9382086 0.1990042 0.9364548 0.1945518 0.9189191 0.255804 0.8917979 0.2665947 0.9187809 0.1945518 0.9189191 0.2056129 0.8898999 0.2061709 0.8745917 0.2543164 0.8745917 0.255804 0.8917979 0.2056129 0.8898999 0.216199 0.4367849 0.1957202 0.4323354 0.2372729 0.4323338 0.182956 0.4230878 0.2467789 0.4217483 0.2374004 0.4323459 0.195848 0.4323459 0.1793046 0.4036359 0.251345 0.404242 0.2467789 0.4217483 0.182956 0.4230878 0.1902703 0.3767237 0.2404726 0.3751516 0.251345 0.404242 0.1793046 0.4036359 0.2399982 0.3598476 0.2404726 0.3751516 0.1902703 0.3767237 0.1918538 0.359535</float_array>
          <technique_common>
            <accessor source="#Silver-cross-mesh-map-0-array" count="1000" stride="2">
              <param name="S" type="float"/>
              <param name="T" type="float"/>
            </accessor>
          </technique_common>
        </source>
        <vertices id="Silver-cross-mesh-vertices">
          <input semantic="POSITION" source="#Silver-cross-mesh-positions"/>
        </vertices>
        <polylist material="Material_001-material" count="176">
          <input semantic="VERTEX" source="#Silver-cross-mesh-vertices" offset="0"/>
          <input semantic="NORMAL" source="#Silver-cross-mesh-normals" offset="1"/>
          <input semantic="TEXCOORD" source="#Silver-cross-mesh-map-0" offset="2" set="0"/>
          <vcount>153 153 4 4 4 4 4 4 4 4 4 4 4 4 4 4 4 4 4 4 4 4 4 4 4 4 4 4 4 4 4 4 4 4 4 4 4 4 4 4 4 4 4 4 4 4 4 4 4 4 4 4 4 4 4 4 4 4 4 4 4 4 4 4 4 4 4 4 4 4 4 4 4 4 4 4 4 4 4 4 4 4 4 4 4 4 4 4 4 4 4 4 4 4 4 4 4 4 4 4 4 4 4 4 4 4 4 4 4 4 4 4 4 4 4 4 4 4 4 4 4 4 4 4 4 4 4 4 4 4 4 4 4 4 4 4 4 4 4 4 4 4 4 4 4 4 4 4 4 4 4 4 4 4 4 4 4 4 4 4 4 4 4 4 4 4 3 4 4 4 4 3 4 4 4 4 </vcount>
          <p>0 0 0 1 0 1 2 0 2 3 0 3 4 0 4 5 0 5 6 0 6 7 0 7 8 0 8 9 0 9 10 0 10 11 0 11 12 0 12 13 0 13 14 0 14 15 0 15 16 0 16 17 0 17 18 0 18 19 0 19 20 0 20 21 0 21 22 0 22 23 0 23 24 0 24 25 0 25 26 0 26 27 0 27 28 0 28 29 0 29 30 0 30 31 0 31 32 0 32 33 0 33 34 0 34 35 0 35 36 0 36 37 0 37 38 0 38 39 0 39 40 0 40 41 0 41 42 0 42 43 0 43 44 0 44 45 0 45 46 0 46 47 0 47 48 0 48 49 0 49 50 0 50 51 0 51 52 0 52 53 0 53 54 0 54 55 0 55 56 0 56 57 0 57 58 0 58 59 0 59 60 0 60 61 0 61 62 0 62 63 0 63 64 0 64 65 0 65 66 0 66 67 0 67 68 0 68 69 0 69 70 0 70 71 0 71 72 0 72 73 0 73 74 0 74 75 0 75 152 0 76 151 0 77 150 0 78 149 0 79 148 0 80 147 0 81 146 0 82 145 0 83 144 0 84 143 0 85 142 0 86 141 0 87 140 0 88 139 0 89 138 0 90 137 0 91 136 0 92 135 0 93 134 0 94 133 0 95 132 0 96 131 0 97 130 0 98 129 0 99 128 0 100 127 0 101 126 0 102 125 0 103 124 0 104 123 0 105 122 0 106 121 0 107 120 0 108 119 0 109 118 0 110 117 0 111 116 0 112 115 0 113 114 0 114 113 0 115 112 0 116 111 0 117 110 0 118 109 0 119 108 0 120 107 0 121 106 0 122 105 0 123 104 0 124 103 0 125 102 0 126 101 0 127 100 0 128 99 0 129 98 0 130 97 0 131 96 0 132 95 0 133 94 0 134 93 0 135 92 0 136 91 0 137 90 0 138 89 0 139 88 0 140 87 0 141 86 0 142 85 0 143 84 0 144 83 0 145 82 0 146 81 0 147 80 0 148 79 0 149 78 0 150 77 0 151 76 0 152 153 1 153 229 1 154 230 1 155 231 1 156 232 1 157 233 1 158 234 1 159 235 1 160 236 1 161 237 1 162 238 1 163 239 1 164 240 1 165 241 1 166 242 1 167 243 1 168 244 1 169 245 1 170 246 1 171 247 1 172 248 1 173 249 1 174 250 1 175 251 1 176 252 1 177 253 1 178 254 1 179 255 1 180 256 1 181 257 1 182 258 1 183 259 1 184 260 1 185 261 1 186 262 1 187 263 1 188 264 1 189 265 1 190 266 1 191 267 1 192 268 1 193 269 1 194 270 1 195 271 1 196 272 1 197 273 1 198 274 1 199 275 1 200 276 1 201 277 1 202 278 1 203 279 1 204 280 1 205 281 1 206 282 1 207 283 1 208 284 1 209 285 1 210 286 1 211 287 1 212 288 1 213 289 1 214 290 1 215 291 1 216 292 1 217 293 1 218 294 1 219 295 1 220 296 1 221 297 1 222 298 1 223 299 1 224 300 1 225 301 1 226 302 1 227 303 1 228 304 1 229 305 1 230 228 1 231 227 1 232 226 1 233 225 1 234 224 1 235 223 1 236 222 1 237 221 1 238 220 1 239 219 1 240 218 1 241 217 1 242 216 1 243 215 1 244 214 1 245 213 1 246 212 1 247 211 1 248 210 1 249 209 1 250 208 1 251 207 1 252 206 1 253 205 1 254 204 1 255 203 1 256 202 1 257 201 1 258 200 1 259 199 1 260 198 1 261 197 1 262 196 1 263 195 1 264 194 1 265 193 1 266 192 1 267 191 1 268 190 1 269 189 1 270 188 1 271 187 1 272 186 1 273 185 1 274 184 1 275 183 1 276 182 1 277 181 1 278 180 1 279 179 1 280 178 1 281 177 1 282 176 1 283 175 1 284 174 1 285 173 1 286 172 1 287 171 1 288 170 1 289 169 1 290 168 1 291 167 1 292 166 1 293 165 1 294 164 1 295 163 1 296 162 1 297 161 1 298 160 1 299 159 1 300 158 1 301 157 1 302 156 1 303 155 1 304 154 1 305 23 2 306 176 2 307 177 2 308 24 2 309 126 3 310 279 3 311 278 3 312 125 3 313 313 4 314 312 4 315 321 4 316 322 4 317 24 5 318 177 5 319 178 5 320 25 5 321 127 6 322 280 6 323 279 6 324 126 6 325 314 7 326 313 7 327 322 7 328 323 7 329 25 8 330 178 8 331 179 8 332 26 8 333 128 9 334 281 9 335 280 9 336 127 9 337 77 10 338 230 10 339 229 10 340 76 10 341 26 11 342 179 11 343 180 11 344 27 11 345 129 12 346 282 12 347 281 12 348 128 12 349 78 13 350 231 13 351 230 13 352 77 13 353 27 14 354 180 14 355 181 14 356 28 14 357 130 15 358 283 15 359 282 15 360 129 15 361 79 16 362 232 16 363 231 16 364 78 16 365 28 17 366 181 17 367 182 17 368 29 17 369 131 18 370 284 18 371 283 18 372 130 18 373 80 19 374 233 19 375 232 19 376 79 19 377 29 20 378 182 20 379 183 20 380 30 20 381 132 21 382 285 21 383 284 21 384 131 21 385 81 22 386 234 22 387 233 22 388 80 22 389 30 23 390 183 23 391 184 23 392 31 23 393 133 24 394 286 24 395 285 24 396 132 24 397 82 25 398 235 25 399 234 25 400 81 25 401 31 26 402 184 26 403 185 26 404 32 26 405 134 27 406 287 27 407 286 27 408 133 27 409 83 28 410 236 28 411 235 28 412 82 28 413 32 29 414 185 29 415 186 29 416 33 29 417 135 30 418 288 30 419 287 30 420 134 30 421 84 31 422 237 31 423 236 31 424 83 31 425 33 32 426 186 32 427 187 32 428 34 32 429 136 33 430 289 33 431 288 33 432 135 33 433 85 34 434 238 34 435 237 34 436 84 34 437 34 35 438 187 35 439 188 35 440 35 35 441 137 36 442 290 36 443 289 36 444 136 36 445 86 37 446 239 37 447 238 37 448 85 37 449 35 38 450 188 38 451 189 38 452 36 38 453 138 39 454 291 39 455 290 39 456 137 39 457 87 40 458 240 40 459 239 40 460 86 40 461 36 41 462 189 41 463 190 41 464 37 41 465 139 42 466 292 42 467 291 42 468 138 42 469 88 43 470 241 43 471 240 43 472 87 43 473 37 44 474 190 44 475 191 44 476 38 44 477 140 45 478 293 45 479 292 45 480 139 45 481 89 46 482 242 46 483 241 46 484 88 46 485 38 47 486 191 47 487 192 47 488 39 47 489 141 48 490 294 48 491 293 48 492 140 48 493 90 49 494 243 49 495 242 49 496 89 49 497 39 50 498 192 50 499 193 50 500 40 50 501 142 51 502 295 51 503 294 51 504 141 51 505 91 52 506 244 52 507 243 52 508 90 52 509 40 53 510 193 53 511 194 53 512 41 53 513 143 54 514 296 54 515 295 54 516 142 54 517 92 55 518 245 55 519 244 55 520 91 55 521 41 56 522 194 56 523 195 56 524 42 56 525 144 57 526 297 57 527 296 57 528 143 57 529 93 58 530 246 58 531 245 58 532 92 58 533 42 59 534 195 59 535 196 59 536 43 59 537 145 60 538 298 60 539 297 60 540 144 60 541 94 61 542 247 61 543 246 61 544 93 61 545 43 62 546 196 62 547 197 62 548 44 62 549 146 63 550 299 63 551 298 63 552 145 63 553 95 64 554 248 64 555 247 64 556 94 64 557 44 65 558 197 65 559 198 65 560 45 65 561 147 66 562 300 66 563 299 66 564 146 66 565 96 67 566 249 67 567 248 67 568 95 67 569 45 68 570 198 68 571 199 68 572 46 68 573 148 69 574 301 69 575 300 69 576 147 69 577 97 70 578 250 70 579 249 70 580 96 70 581 46 71 582 199 71 583 200 71 584 47 71 585 149 72 586 302 72 587 301 72 588 148 72 589 98 73 590 251 73 591 250 73 592 97 73 593 47 74 594 200 74 595 201 74 596 48 74 597 150 75 598 303 75 599 302 75 600 149 75 601 99 76 602 252 76 603 251 76 604 98 76 605 48 77 606 201 77 607 202 77 608 49 77 609 151 78 610 304 78 611 303 78 612 150 78 613 100 79 614 253 79 615 252 79 616 99 79 617 49 80 618 202 80 619 203 80 620 50 80 621 152 81 622 305 81 623 304 81 624 151 81 625 101 82 626 254 82 627 253 82 628 100 82 629 50 83 630 203 83 631 204 83 632 51 83 633 315 84 634 314 84 635 323 84 636 324 84 637 76 85 638 229 85 639 153 85 640 0 85 641 102 86 642 255 86 643 254 86 644 101 86 645 51 87 646 204 87 647 205 87 648 52 87 649 318 88 650 315 88 651 324 88 652 327 88 653 0 89 654 153 89 655 154 89 656 1 89 657 103 90 658 256 90 659 255 90 660 102 90 661 52 91 662 205 91 663 206 91 664 53 91 665 1 92 666 154 92 667 155 92 668 2 92 669 104 93 670 257 93 671 256 93 672 103 93 673 53 94 674 206 94 675 207 94 676 54 94 677 2 95 678 155 95 679 156 95 680 3 95 681 105 96 682 258 96 683 257 96 684 104 96 685 54 97 686 207 97 687 208 97 688 55 97 689 3 98 690 156 98 691 157 98 692 4 98 693 106 99 694 259 99 695 258 99 696 105 99 697 55 100 698 208 100 699 209 100 700 56 100 701 4 101 702 157 101 703 158 101 704 5 101 705 107 102 706 260 102 707 259 102 708 106 102 709 56 103 710 209 103 711 210 103 712 57 103 713 5 104 714 158 104 715 159 104 716 6 104 717 108 105 718 261 105 719 260 105 720 107 105 721 57 106 722 210 106 723 211 106 724 58 106 725 6 107 726 159 107 727 160 107 728 7 107 729 109 108 730 262 108 731 261 108 732 108 108 733 58 109 734 211 109 735 212 109 736 59 109 737 7 110 738 160 110 739 161 110 740 8 110 741 110 111 742 263 111 743 262 111 744 109 111 745 59 112 746 212 112 747 213 112 748 60 112 749 8 113 750 161 113 751 162 113 752 9 113 753 111 114 754 264 114 755 263 114 756 110 114 757 60 115 758 213 115 759 214 115 760 61 115 761 9 116 762 162 116 763 163 116 764 10 116 765 112 117 766 265 117 767 264 117 768 111 117 769 61 118 770 214 118 771 215 118 772 62 118 773 10 119 774 163 119 775 164 119 776 11 119 777 113 120 778 266 120 779 265 120 780 112 120 781 62 121 782 215 121 783 216 121 784 63 121 785 11 122 786 164 122 787 165 122 788 12 122 789 114 123 790 267 123 791 266 123 792 113 123 793 63 124 794 216 124 795 217 124 796 64 124 797 12 125 798 165 125 799 166 125 800 13 125 801 115 126 802 268 126 803 267 126 804 114 126 805 64 127 806 217 127 807 218 127 808 65 127 809 13 128 810 166 128 811 167 128 812 14 128 813 116 129 814 269 129 815 268 129 816 115 129 817 65 130 818 218 130 819 219 130 820 66 130 821 14 131 822 167 131 823 168 131 824 15 131 825 117 132 826 270 132 827 269 132 828 116 132 829 66 133 830 219 133 831 220 133 832 67 133 833 15 134 834 168 134 835 169 134 836 16 134 837 118 135 838 271 135 839 270 135 840 117 135 841 67 136 842 220 136 843 221 136 844 68 136 845 16 137 846 169 137 847 170 137 848 17 137 849 119 138 850 272 138 851 271 138 852 118 138 853 68 139 854 221 139 855 222 139 856 69 139 857 17 140 858 170 140 859 171 140 860 18 140 861 120 141 862 273 141 863 272 141 864 119 141 865 69 142 866 222 142 867 223 142 868 70 142 869 18 143 870 171 143 871 172 143 872 19 143 873 121 144 874 274 144 875 273 144 876 120 144 877 70 145 878 223 145 879 224 145 880 71 145 881 19 146 882 172 146 883 173 146 884 20 146 885 122 147 886 275 147 887 274 147 888 121 147 889 71 148 890 224 148 891 225 148 892 72 148 893 20 149 894 173 149 895 174 149 896 21 149 897 123 150 898 276 150 899 275 150 900 122 150 901 72 151 902 225 151 903 226 151 904 73 151 905 21 152 906 174 152 907 175 152 908 22 152 909 124 153 910 277 153 911 276 153 912 123 153 913 73 154 914 226 154 915 227 154 916 74 154 917 22 155 918 175 155 919 176 155 920 23 155 921 125 156 922 278 156 923 277 156 924 124 156 925 74 157 926 227 157 927 228 157 928 75 157 929 228 158 930 317 158 931 326 158 932 75 158 933 228 159 934 75 159 935 306 159 936 308 159 937 317 160 938 316 160 939 325 160 940 326 160 941 305 159 942 152 159 943 307 159 944 309 159 945 316 161 946 318 161 947 327 161 948 325 161 949 312 162 950 311 162 951 320 162 952 321 162 953 311 163 954 310 163 955 319 163 956 320 163 957 310 164 958 305 164 959 152 164 960 319 164 961 314 165 962 315 165 963 313 165 964 312 166 965 313 166 966 315 166 967 318 166 968 311 167 969 312 167 970 318 167 971 316 167 972 310 168 973 311 168 974 316 168 975 317 168 976 228 165 977 305 165 978 310 165 979 317 165 980 323 169 981 322 169 982 324 169 983 321 169 984 327 169 985 324 169 986 322 169 987 320 170 988 325 170 989 327 170 990 321 170 991 319 171 992 326 171 993 325 171 994 320 171 995 75 172 996 326 172 997 319 172 998 152 172 999</p>
        </polylist>
      </mesh>
    </geometry>
  </library_geometries>
  <library_controllers/>
  <library_visual_scenes>
    <visual_scene id="Scene" name="Scene">
      <node id="Silver-cross" name="Silver-cross" type="NODE">
        <matrix sid="transform">1 0 0 0 0 1 0 0 0 0 1 0 0 0 0 1</matrix>
        <instance_geometry url="#Silver-cross-mesh" name="Silver-cross">
          <bind_material>
            <technique_common>
              <instance_material symbol="Material_001-material" target="#Material_001-material">
                <bind_vertex_input semantic="UVMap" input_semantic="TEXCOORD" input_set="0"/>
              </instance_material>
            </technique_common>
          </bind_material>
        </instance_geometry>
      </node>
    </visual_scene>
  </library_visual_scenes>
  <scene>
    <instance_visual_scene url="#Scene"/>
  </scene>
</COLLADA>